Computer-Aided Statistical Analysis (B.Sc.) - 1 Statistical Learning
…
ℹ Use `spec()` to retrieve the full column specification for this data.
ℹ Specify the column types or set `show_col_types = FALSE` to quiet this message.

If all goes well then the data is now stored in an R object called CW. If you get the following error message then you need to change the working directory to where the data is stored:

Error: ‘ChickWeight.csv’ does not exist in current working directory …

Changing the working directory: In RStudio you can use the menu bar (“Session - Set Working Directory - Choose Directory…”). Alternatively, you can use the function setwd(). Last but not least, to avoid issues with brocken paths to files and data sets, use RStudios’ “Project” tools.

Looking at the Dataset: To look at the data type just type the object (dataset) name:

CW

# A tibble: 578 × 4
   Chick  Diet  Time weight
   <dbl> <dbl> <dbl>  <dbl>
 1    18     1     0     39
 2    18     1     2     35
 3    16     1     0     41
 4    16     1     2     45
 5    16     1     4     49
 6    16     1     6     51
 7    16     1     8     57
 8    16     1    10     51
 9    16     1    12     54
10    15     1     0     41
# … with 568 more rows
…
1.5.7.2 Tidyverse: Data Wrangling Basics

In this section we will learn how to wrangle (manipulate) datasets using the tidyverse package. Let’s start with the mutate(), select(), rename(), filter() and arrange() functions.

mutate(): Adds a new variable (column) or modifies an existing one. We already used this above to create factor variables.

# Added a column
CWm1 <- mutate(CW, weightKg = weight/1000)
CWm1

# A tibble: 578 × 5
  Chick Diet  Time  weight weightKg
  <dbl> <fct> <fct>  <dbl>    <dbl>
1    18 1     0         39    0.039
2    18 1     2         35    0.035
3    16 1     0         41    0.041
# … with 575 more rows

# Modify an existing column
CWm2 <- mutate(CW, Diet = str_c("Diet ", Diet))
CWm2

# A tibble: 578 × 4
  Chick Diet   Time  weight
  <dbl> <chr>  <fct>  <dbl>
1    18 Diet 1 0         39
2    18 Diet 1 2         35
3    16 Diet 1 0         41
# … with 575 more rows

select(): Keeps, drops or reorders variables.

# Drop the weight variable from CWm1 using minus
dplyr::select(CWm1, -weight)

# A tibble: 578 × 4
  Chick Diet  Time  weightKg
  <dbl> <fct> <fct>    <dbl>
1    18 1     0        0.039
2    18 1     2        0.035
3    16 1     0        0.041
# … with 575 more rows

# Keep variables Time, Diet and weightKg
dplyr::select(CWm1, Chick, Time, Diet, weightKg)

# A tibble: 578 × 4
  Chick Time  Diet  weightKg
  <dbl> <fct> <fct>    <dbl>
1    18 0     1        0.039
2    18 2     1        0.035
3    16 0     1        0.041
# … with 575 more rows

rename(): Renames variables whilst keeping all variables.

dplyr::rename(CW, Group = Diet, Weight = weight)

# A tibble: 578 × 4
  Chick Group Time  Weight
  <dbl> <fct> <fct>  <dbl>
1    18 1     0         39
2    18 1     2         35
3    16 1     0         41
# … with 575 more rows

filter(): Keeps or drops observations (rows).

dplyr::filter(CW, Time==21 & weight>300)

# A tibble: 8 × 4
  Chick Diet  Time  weight
  <dbl> <fct> <fct>  <dbl>
1     7 1     21       305
2    29 2     21       309
3    21 2     21       331
# … with 5 more rows

For comparing values in vectors use: < (less than), > (greater than), <= (less than and equal to), >= (greater than and equal to), == (equal to) and != (not equal to). These can be combined logically using & (and) and | (or).

arrange(): Changes the order of the observations.

dplyr::arrange(CW, Chick, Time)

# A tibble: 578 × 4
  Chick Diet  Time  weight
  <dbl> <fct> <fct>  <dbl>
1     1 1     0         42
2     1 1     2         51
3     1 1     4         59
# … with 575 more rows

dplyr::arrange(CW, desc(weight))

# A tibble: 578 × 4
  Chick Diet  Time  weight
  <dbl> <fct> <fct>  <dbl>
1    35 3     21       373
2    35 3     20       361
3    34 3     21       341
# … with 575 more rows
What does the desc() do? Try using desc(Time).

1.5.7.3 The pipe operator %>%

In reality you will end up doing multiple data wrangling steps that you want to save. The pipe operator %>% makes your code nice and readable:

CW21 <- CW %>% 
  dplyr::filter(Time %in% c(0, 21)) %>% 
  dplyr::rename(Weight = weight) %>% 
  dplyr::mutate(Group = factor(str_c("Diet ", Diet))) %>% 
  dplyr::select(Chick, Group, Time, Weight) %>% 
  dplyr::arrange(Chick, Time) 
CW21

# A tibble: 95 × 4
  Chick Group  Time  Weight
  <dbl> <fct>  <fct>  <dbl>
1     1 Diet 1 0         42
2     1 Diet 1 21       205
3     2 Diet 1 0         40
# … with 92 more rows
…
1.5.7.4 The group_by() function

From the data visualizations above we concluded that the diet 3 has the highest mean and diet 4 the least variation. In this section, we will quantify the effects of the diets using summmary statistics. We start by looking at the number of observations and the mean by diet and time.

mnsdCW <- CW %>% 
  dplyr::group_by(Diet, Time) %>% 
  dplyr::summarise(N = n(), Mean = mean(weight)) %>% 
  dplyr::arrange(Diet, Time)

`summarise()` has grouped output by 'Diet'. You can override using the
`.groups` argument.

mnsdCW

# A tibble: 48 × 4
# Groups:   Diet [4]
  Diet  Time      N  Mean
  <fct> <fct> <int> <dbl>
1 1     0        20  41.4
2 1     2        20  47.2
3 1     4        19  56.5
# … with 45 more rows
…
`summarise()` has grouped output by 'Diet'. You can override using the
`.groups` argument.

sumCW

# A tibble: 8 × 8
# Groups:   Diet [4]
  Diet  Time      N  Mean     SD Median   Min   Max
  <fct> <fct> <int> <dbl>  <dbl>  <dbl> <dbl> <dbl>
1 1     0        20  41.4  0.995   41      39    43
2 1     21       16 178.  58.7    166      96   305
3 2     0        10  40.7  1.49    40.5    39    43
# … with 5 more rows
…
